{
  "fileMap": {
    "trabur/output/portfolio/postgresql-to-rabbitmq.json": {
      "slug": "postgresql-to-rabbitmq",
      "title": "PostgreSQL to RabbitMQ",
      "description": "When you need to run a script of node.js code after a change in the database what do you do? You build a microservice to LISTEN to SQL events and push them to RabbitMQ for later digestion.",
      "cover": "/static/portfolio/nodejs.png",
      "coverPreview": "/static/portfolio/nodejs.png",
      "type": "nodejs",
      "tags": [
        "SQL",
        "RabbitMQ",
        "PostgresQL",
        "AMQP"
      ],
      "dir": "trabur/output/portfolio",
      "base": "postgresql-to-rabbitmq.json",
      "ext": ".json",
      "sourceBase": "postgresql-to-rabbitmq.md",
      "sourceExt": ".md"
    },
    "trabur/output/portfolio/fleetgrid.json": {
      "slug": "fleetgrid",
      "title": "FLEETGRID",
      "description": "Using react-native deploying natively to both android and iOS platforms under a single language is now possible. It mirrors the same functionality found on the web. Also just like the web version it uses fleetgrid's API for application state so all changes are synced across the board.",
      "cover": "/static/portfolio/mobile.png",
      "coverPreview": "/static/portfolio/mobile.png",
      "type": "mobile",
      "tags": [
        "GraphQL",
        "React Native",
        "HTML",
        "CSS"
      ],
      "dir": "trabur/output/portfolio",
      "base": "fleetgrid.json",
      "ext": ".json",
      "sourceBase": "fleetgrid.md",
      "sourceExt": ".md"
    },
    "trabur/output/portfolio/registration-docbookmd-com.json": {
      "slug": "registration-docbookmd-com",
      "title": "registration.docbookmd.com",
      "description": "Seven step registration process including physician directory search, contact info confirmation, dynamic knowledge-based authentication (KBA), signature agreement, password creation, and login.",
      "duration": "2 Weeks",
      "highlights": [
        "Overhauled existing problematic registration system collaborating with stakeholders and in house designers throughout design comps and development.",
        "Seven step registration process including physician directory search, contact info confirmation, dynamic knowledge-based authentication (KBA), signature agreement, password creation, and login.",
        "https://registration.docbookmd.com"
      ],
      "cover": "/static/portfolio/registration-docbookmd-com.png",
      "coverPreview": "/static/portfolio/registration-docbookmd-com.png",
      "type": "web",
      "tags": [
        "MySQL / MariaDB",
        "Cross Browser",
        "Express",
        "Twitter Bootstrap",
        "Sass",
        "Lodash",
        "HTML",
        "CSS",
        "Gulp",
        "AngularJS",
        "JavaScript"
      ],
      "dir": "trabur/output/portfolio",
      "base": "registration-docbookmd-com.json",
      "ext": ".json",
      "sourceBase": "registration-docbookmd-com.md",
      "sourceExt": ".md"
    },
    "trabur/output/portfolio/app-gritness-com.json": {
      "slug": "app-gritness-com",
      "title": "app.gritness.com",
      "description": "Gritness was created by athletes who were fed-up with the level of effort required to get people together for a workout.",
      "startDate": "Apr. 2013",
      "endDate": "Nov. 2013",
      "highlights": [
        "Collaborated with existing overseas developers, management, and stakeholders. Establishing core values, product gamification, and a business model.",
        "Implemented user profiles, settings, groups, activities, and a dashboard, with a focus on real time, using AJAX conventions with modal drop downs, partials, form validation, infinite scrolling, and X-editable.",
        "Using the Stripe payments API developed a complete payment system with shopping cart, invoices, fees, discounts, bank transfers, and an admin control panel to manage it all.",
        "http://gritness.com"
      ],
      "cover": "/static/portfolio/app-gritness-com.png",
      "coverPreview": "/static/portfolio/app-gritness-com.png",
      "type": "web",
      "tags": [
        "MySQL / MariaDB",
        "SQL",
        "Yii",
        "Cross Browser",
        "jQuery",
        "Twitter Bootstrap",
        "HTML",
        "CSS",
        "PHP",
        "JavaScript"
      ],
      "dir": "trabur/output/portfolio",
      "base": "app-gritness-com.json",
      "ext": ".json",
      "sourceBase": "app-gritness-com.md",
      "sourceExt": ".md"
    },
    "trabur/output/portfolio/hvac-buddy.json": {
      "slug": "hvac-buddy",
      "title": "HVAC Buddy®",
      "description": "Using react-native deploying natively to both android and iOS platforms under a single language is now possible. This version of the app mirrors all the same functionalty as before but with this new language.",
      "cover": "/static/portfolio/hvac-buddy.png",
      "coverPreview": "/static/portfolio/hvac-buddy.png",
      "type": "mobile",
      "tags": [
        "React Native"
      ],
      "dir": "trabur/output/portfolio",
      "base": "hvac-buddy.json",
      "ext": ".json",
      "sourceBase": "hvac-buddy.md",
      "sourceExt": ".md"
    },
    "trabur/output/portfolio/www-fleetgrid-com-console.json": {
      "slug": "www-fleetgrid-com-console",
      "title": "www.fleetgrid.com/console",
      "description": "Employees, office staff and crew members, need to connect with people who consume service, residential and commercial customers. The FLEETGRID Console is built for employees to do just that.",
      "cover": "/static/portfolio/web.png",
      "coverPreview": "/static/portfolio/web.png",
      "type": "web",
      "tags": [
        "React Native",
        "Next.js",
        "CSS",
        "HTML",
        "JSON",
        "GraphQL"
      ],
      "dir": "trabur/output/portfolio",
      "base": "www-fleetgrid-com-console.json",
      "ext": ".json",
      "sourceBase": "www-fleetgrid-com-console.md",
      "sourceExt": ".md"
    },
    "trabur/output/portfolio/trabur-metaheap-io.json": {
      "slug": "trabur-metaheap-io",
      "title": "trabur.metaheap.io",
      "description": "My personal website containing a blog and portfolio. All content starts out as markdown files. The markdown files are then turned into json files using processmd.",
      "cover": "/static/portfolio/trabur-metaheap-io.png",
      "coverPreview": "/static/portfolio/trabur-metaheap-io.png",
      "type": "web",
      "tags": [
        "React Native",
        "HTML",
        "CSS",
        "Next.js",
        "processmd",
        "JSON"
      ],
      "dir": "trabur/output/portfolio",
      "base": "trabur-metaheap-io.json",
      "ext": ".json",
      "sourceBase": "trabur-metaheap-io.md",
      "sourceExt": ".md"
    },
    "trabur/output/portfolio/www-fleetgrid-com-static-storybook.json": {
      "slug": "www-fleetgrid-com-static-storybook",
      "title": "www.fleetgrid.com/static/storybook/index.html",
      "description": "This static site is generated by Storybook for the purpose of documenting Fleetgrid's API. It has example GraphQL queries that are used throughout the app (web and mobile).",
      "cover": "/static/portfolio/www-fleetgrid-com-static-storybook.png",
      "coverPreview": "/static/portfolio/www-fleetgrid-com-static-storybook.png",
      "type": "nodejs",
      "tags": [
        "GraphQL",
        "Storybook",
        "Next.js"
      ],
      "dir": "trabur/output/portfolio",
      "base": "www-fleetgrid-com-static-storybook.json",
      "ext": ".json",
      "sourceBase": "www-fleetgrid-com-static-storybook.md",
      "sourceExt": ".md"
    },
    "trabur/output/portfolio/www-hvac-buddy-com.json": {
      "slug": "www-hvac-buddy-com",
      "title": "www.hvac-buddy.com",
      "description": "The landing page and showcase of all the HVAC Buddy applications. Contains a contact form that integrates with Gitlabs's support ticket system.",
      "cover": "/static/portfolio/www-hvac-buddy-com.png",
      "coverPreview": "/static/portfolio/www-hvac-buddy-com.png",
      "type": "web",
      "tags": [
        "HTML",
        "CSS",
        "Next.js"
      ],
      "dir": "trabur/output/portfolio",
      "base": "www-hvac-buddy-com.json",
      "ext": ".json",
      "sourceBase": "www-hvac-buddy-com.md",
      "sourceExt": ".md"
    },
    "trabur/output/portfolio/trabur-github-io.json": {
      "slug": "trabur-github-io",
      "title": "trabur.github.io",
      "description": "This turns a json file into a presentable resume and is programmed in AngularJS. Also available in PDF format. Just download the generated PDF or use the browsers built in print funcionality.",
      "cover": "/static/portfolio/trabur-github-io.png",
      "coverPreview": "/static/portfolio/trabur-github-io.png",
      "type": "web",
      "tags": [
        "AngularJS",
        "HTML",
        "CSS",
        "Gulp"
      ],
      "dir": "trabur/output/portfolio",
      "base": "trabur-github-io.json",
      "ext": ".json",
      "sourceBase": "trabur-github-io.md",
      "sourceExt": ".md"
    },
    "trabur/output/portfolio/api-fleetgrid-com-graphql.json": {
      "slug": "api-fleetgrid-com-graphql",
      "title": "api.fleetgrid.com/graphql",
      "description": "Instant high-performance GraphQL API for your PostgreSQL database. Fleetgrid's web and mobile UI use this backend for application state and it works flawlessly.",
      "cover": "/static/portfolio/api-fleetgrid-com-graphql.png",
      "coverPreview": "/static/portfolio/api-fleetgrid-com-graphql.png",
      "type": "nodejs",
      "tags": [
        "GraphQL",
        "Express",
        "Kubernetes",
        "Helm",
        "PostgreSQL",
        "PostGraphile",
        "JSON"
      ],
      "dir": "trabur/output/portfolio",
      "base": "api-fleetgrid-com-graphql.json",
      "ext": ".json",
      "sourceBase": "api-fleetgrid-com-graphql.md",
      "sourceExt": ".md"
    },
    "trabur/output/portfolio/www-fleetgrid-com.json": {
      "slug": "www-fleetgrid-com",
      "title": "www.fleetgrid.com",
      "description": "The platform for all the things field service! Contains portal, console, api, and the works!",
      "cover": "/static/portfolio/www-fleetgrid-com.png",
      "coverPreview": "/static/portfolio/www-fleetgrid-com.png",
      "type": "web",
      "tags": [
        "HTML",
        "CSS",
        "Next.js"
      ],
      "dir": "trabur/output/portfolio",
      "base": "www-fleetgrid-com.json",
      "ext": ".json",
      "sourceBase": "www-fleetgrid-com.md",
      "sourceExt": ".md"
    },
    "trabur/output/portfolio/oneway-docbookmd-com.json": {
      "slug": "oneway-docbookmd-com",
      "title": "oneway.docbookmd.com",
      "description": "One way bulk message composition and dispatching to a network of web and mobile devices via sockets, tasks, and push notifications. Implementing audit logs, progress indicators, and message tracking tools to ensure critical messages were sent in a timely and efficient manner.",
      "startDate": "Feb. 2014",
      "endDate": "Mar. 2014",
      "highlights": [
        "One way bulk message composition and dispatching to a network of web and mobile devices via sockets, tasks, and push notifications. Implementing audit logs, progress indicators, and message tracking tools to ensure critical messages were sent in a timely and efficient manner.",
        "Inherited from a former employee completed and maintained project.",
        "https://oneway.docbookmd.com"
      ],
      "cover": "/static/portfolio/oneway-docbookmd-com.png",
      "coverPreview": "/static/portfolio/oneway-docbookmd-com.png",
      "type": "web",
      "tags": [
        "MySQL / MariaDB",
        "Cross Browser",
        "Express",
        "jQuery",
        "Twitter Bootstrap",
        "Sass",
        "HTML",
        "CSS",
        "Gulp",
        "Git",
        "AngularJS",
        "JavaScript"
      ],
      "dir": "trabur/output/portfolio",
      "base": "oneway-docbookmd-com.json",
      "ext": ".json",
      "sourceBase": "oneway-docbookmd-com.md",
      "sourceExt": ".md"
    },
    "trabur/output/portfolio/webapp-docbookmd-com.json": {
      "slug": "webapp-docbookmd-com",
      "title": "webapp.docbookmd.com",
      "description": "DocbookMD's flagship product for the web. A one to one representation to their existing mobile applications. Great attention to detail to ensure the same experience functionally and visually from mobile to web and back.",
      "startDate": "Apr. 2014",
      "endDate": "Jul. 2014",
      "highlights": [
        "DocbookMD's flagship product for the web. A one to one representation to their existing mobile applications. Great attention to detail to ensure the same experience functionally and visually from mobile to web and back.",
        "Consists of email like instant messaging application. Physician, Careteam, and pharmacy directories with master detail pages and complex server logic. Including admin statistics, configuration, and management of messages, physicians, Careteams, etc.",
        "Performance tuning with transitions, large sets of sorted, filtered, and paginated data, and infinite scrolling.",
        "Cross browser down to Windows XP / IE8 support and HIPAA compliance across all DocbookMD products.",
        "https://webapp.docbookmd.com"
      ],
      "cover": "/static/portfolio/webapp-docbookmd-com.png",
      "coverPreview": "/static/portfolio/webapp-docbookmd-com.png",
      "type": "web",
      "tags": [
        "MySQL / MariaDB",
        "Cross Browser",
        "Express",
        "jQuery",
        "Twitter Bootstrap",
        "Sass",
        "Lodash",
        "HTML",
        "CSS",
        "Gulp",
        "Git",
        "AngularJS",
        "JavaScript"
      ],
      "dir": "trabur/output/portfolio",
      "base": "webapp-docbookmd-com.json",
      "ext": ".json",
      "sourceBase": "webapp-docbookmd-com.md",
      "sourceExt": ".md"
    },
    "trabur/output/portfolio/www-fleetgrid-com-static-voyager.json": {
      "slug": "www-fleetgrid-com-static-voyager",
      "title": "www.fleetgrid.com/static/voyager/index.html",
      "description": "Got a sick GraphQL API and want to better visualize it? Try Voyager! I installed it in my Next.js static folder and it integrates with the currently logged in user session.",
      "cover": "/static/portfolio/www-fleetgrid-com-static-voyager.png",
      "coverPreview": "/static/portfolio/www-fleetgrid-com-static-voyager.png",
      "type": "nodejs",
      "tags": [
        "GraphQL",
        "Next.js",
        "GraphQL Voyager"
      ],
      "dir": "trabur/output/portfolio",
      "base": "www-fleetgrid-com-static-voyager.json",
      "ext": ".json",
      "sourceBase": "www-fleetgrid-com-static-voyager.md",
      "sourceExt": ".md"
    },
    "trabur/output/portfolio/www-metaheap-io.json": {
      "slug": "www-metaheap-io",
      "title": "www.metaheap.io",
      "description": "Splash page of my local network. Useful for directing me to services that I have running around the house like Plex.",
      "cover": "/static/portfolio/www-metaheap-io.png",
      "coverPreview": "/static/portfolio/www-metaheap-io.png",
      "type": "web",
      "tags": [
        "HTML",
        "CSS",
        "Next.js"
      ],
      "dir": "trabur/output/portfolio",
      "base": "www-metaheap-io.json",
      "ext": ".json",
      "sourceBase": "www-metaheap-io.md",
      "sourceExt": ".md"
    },
    "trabur/output/portfolio/www-halotracks-org.json": {
      "slug": "www-halotracks-org",
      "title": "www.halotracks.org",
      "description": "Created 20k member community gaming website, halotracks.org. Producing the most popular Halo 3-4 gametype and roughly 5,000 maps with over 20 million downloads.",
      "startDate": "Mar. 2008",
      "endDate": 2011,
      "highlights": [
        "Created 20k member community gaming website, halotracks.org. Producing the most popular Halo3-4 gametype and roughly 5,000 maps with over 20 million downloads.",
        "Integrating with bungie.net's public API overhauled existing IPB Gallery plugin to allow direct downloads and statistics.",
        "Learned the basics of creating, hosting, and maintaining LAMP."
      ],
      "cover": "/static/portfolio/www-halotracks-org.png",
      "coverPreview": "/static/portfolio/www-halotracks-org.png",
      "type": "web",
      "tags": [
        "MySQL / MariaDB",
        "SQL",
        "SEO",
        "jQuery",
        "HTML",
        "CSS",
        "PHP",
        "JavaScript"
      ],
      "dir": "trabur/output/portfolio",
      "base": "www-halotracks-org.json",
      "ext": ".json",
      "sourceBase": "www-halotracks-org.md",
      "sourceExt": ".md"
    }
  },
  "sourceFileArray": [
    "trabur/portfolio/api-fleetgrid-com-graphql.md",
    "trabur/portfolio/app-gritness-com.md",
    "trabur/portfolio/fleetgrid.md",
    "trabur/portfolio/hvac-buddy.md",
    "trabur/portfolio/oneway-docbookmd-com.md",
    "trabur/portfolio/postgresql-to-rabbitmq.md",
    "trabur/portfolio/registration-docbookmd-com.md",
    "trabur/portfolio/trabur-github-io.md",
    "trabur/portfolio/trabur-metaheap-io.md",
    "trabur/portfolio/webapp-docbookmd-com.md",
    "trabur/portfolio/www-fleetgrid-com-console.md",
    "trabur/portfolio/www-fleetgrid-com-static-storybook.md",
    "trabur/portfolio/www-fleetgrid-com-static-voyager.md",
    "trabur/portfolio/www-fleetgrid-com.md",
    "trabur/portfolio/www-halotracks-org.md",
    "trabur/portfolio/www-hvac-buddy-com.md",
    "trabur/portfolio/www-metaheap-io.md"
  ]
}