{
  "slug": "trabur-metaheap-io",
  "title": "trabur.metaheap.io",
  "description": "My personal website containing a blog and portfolio. All content starts out as markdown files. The markdown files are then turned into json files using processmd.",
  "cover": "/static/portfolio/trabur-metaheap-io.png",
  "coverPreview": "/static/portfolio/trabur-metaheap-io.png",
  "type": "web",
  "tags": [
    "React Native",
    "HTML",
    "CSS",
    "Next.js",
    "processmd",
    "JSON"
  ],
  "bodyContent": "hello web",
  "bodyHtml": "<p>hello web</p>\n",
  "dir": "trabur/output/portfolio",
  "base": "trabur-metaheap-io.json",
  "ext": ".json",
  "sourceBase": "trabur-metaheap-io.md",
  "sourceExt": ".md"
}