{
  "slug": "www-hvac-buddy-com",
  "title": "www.hvac-buddy.com",
  "description": "The landing page and showcase of all the HVAC Buddy applications. Contains a contact form that integrates with Gitlabs's support ticket system.",
  "cover": "/static/portfolio/www-hvac-buddy-com.png",
  "coverPreview": "/static/portfolio/www-hvac-buddy-com.png",
  "type": "web",
  "tags": [
    "HTML",
    "CSS",
    "Next.js"
  ],
  "bodyContent": "hello web",
  "bodyHtml": "<p>hello web</p>\n",
  "dir": "trabur/output/portfolio",
  "base": "www-hvac-buddy-com.json",
  "ext": ".json",
  "sourceBase": "www-hvac-buddy-com.md",
  "sourceExt": ".md"
}