{
  "slug": "setting-up-drone-to-ship-code-fast",
  "title": "Setting Up Drone to Ship Code Fast",
  "description": null,
  "cover": "/static/blog/ShippingCodeFast/ship-code-fast.png",
  "coverPreview": "/static/blog/ShippingCodeFast/ship-code-fast.png",
  "tags": [
    "CLI",
    "git",
    "ci",
    "cd"
  ],
  "createdAt": "2018-11-13T20:16:25.873Z",
  "bodyContent": "Setting Up Drone to Ship Code Fast\n========\n\nPart of [Spinning Up An Ubuntu Machine](/blog/spinning-up-an-ubuntu-machine) is a step dedicated to setting up drone.io. In this blog post I am going to go over the setup process and configuration that I have running.",
  "bodyHtml": "<h1>Setting Up Drone to Ship Code Fast</h1>\n<p>Part of <a href=\"/blog/spinning-up-an-ubuntu-machine\">Spinning Up An Ubuntu Machine</a> is a step dedicated to setting up drone.io. In this blog post I am going to go over the setup process and configuration that I have running.</p>\n",
  "dir": "trabur/output/blog",
  "base": "SettingUpDroneToShipCodeFast.json",
  "ext": ".json",
  "sourceBase": "SettingUpDroneToShipCodeFast.md",
  "sourceExt": ".md"
}